R Workshop (Code for Pittsburgh)
…
select columns

filter rows

mutate new columns

group_by rows and summarize

ggplot2 your data

Explore the data

df #simply type the name of the object to preview it

## # A tibble: 225,189 x 23
##     `_id` request_id created_on          request_type       request_origin
##     <int>      <int> <dttm>              <chr>              <chr>         
##  1 154245      54111 2016-03-10 13:52:00 Rodent control     Call Center   
##  2 154246      53833 2016-03-09 14:22:00 Rodent control     Call Center   
##  3 154247      52574 2016-03-03 07:13:00 Potholes           Call Center   
##  4 154248      54293 2016-03-11 10:12:00 Building Without  Control Panel 
##  5 154249      53560 2016-03-08 14:57:00 Potholes           Call Center   
##  6 154250      49519 2016-02-22 09:10:00 Potholes           Call Center   
##  7 154251      49484 2016-02-22 08:03:00 Potholes           Call Center   
##  8 154252      53787 2016-03-09 12:21:00 Rodent control     Call Center   
##  9 154253      52887 2016-03-04 12:49:00 Potholes           Call Center   
## 10 154254      53599 2016-03-08 16:03:00 Rodent control     Call Center   
## # ... with 225,179 more rows, and 18 more variables: status <int>,
## #   department <chr>, neighborhood <chr>, council_district <int>,
## #   ward <int>, tract <dbl>, public_works_division <int>,
## #   pli_division <int>, police_zone <int>, fire_zone <chr>, x <dbl>,
## #   y <dbl>, geo_accuracy <chr>, date <date>, time <S4: Period>,
## #   month <ord>, year <dbl>, yday <dbl>
…
%>% means and then

%>% passes the dataframe to the next function

df %>% #select the dataframe
  select(date, request_type) #select the date and request_type columns

## # A tibble: 225,189 x 2
##    date       request_type             
##    <date>     <chr>                    
##  1 2016-03-10 Rodent control           
##  2 2016-03-09 Rodent control           
##  3 2016-03-03 Potholes                 
##  4 2016-03-11 Building Without a Permit
##  5 2016-03-08 Potholes                 
##  6 2016-02-22 Potholes                 
##  7 2016-02-22 Potholes                 
##  8 2016-03-09 Rodent control           
##  9 2016-03-04 Potholes                 
## 10 2016-03-08 Rodent control           
## # ... with 225,179 more rows

df %>% 
  select(date, request_type) %>% 
  filter(request_type == "Potholes")

## # A tibble: 31,735 x 2
##    date       request_type
##    <date>     <chr>       
##  1 2016-03-03 Potholes    
##  2 2016-03-08 Potholes    
##  3 2016-02-22 Potholes    
##  4 2016-02-22 Potholes    
##  5 2016-03-04 Potholes    
##  6 2016-03-11 Potholes    
##  7 2016-03-08 Potholes    
##  8 2016-03-08 Potholes    
##  9 2016-03-08 Potholes    
## 10 2016-03-08 Potholes    
## # ... with 31,725 more rows

#mutate
library(lubridate)
df %>% 
  select(date, request_type) %>% 
  filter(request_type == "Potholes") %>% 
  mutate(weekday = wday(date, label = TRUE))

## # A tibble: 31,735 x 3
##    date       request_type weekday
##    <date>     <chr>        <ord>  
##  1 2016-03-03 Potholes     Thu    
##  2 2016-03-08 Potholes     Tue    
##  3 2016-02-22 Potholes     Mon    
##  4 2016-02-22 Potholes     Mon    
##  5 2016-03-04 Potholes     Fri    
##  6 2016-03-11 Potholes     Fri    
##  7 2016-03-08 Potholes     Tue    
##  8 2016-03-08 Potholes     Tue    
##  9 2016-03-08 Potholes     Tue    
## 10 2016-03-08 Potholes     Tue    
## # ... with 31,725 more rows
…
df %>% 
  filter(request_type == "Potholes") %>% 
  count(date)

## # A tibble: 983 x 2
##    date           n
##    <date>     <int>
##  1 2015-04-20   119
##  2 2015-04-21   101
##  3 2015-04-22   109
##  4 2015-04-23   102
##  5 2015-04-24    84
##  6 2015-04-27    85
##  7 2015-04-28   101
##  8 2015-04-29   107
##  9 2015-04-30    83
## 10 2015-05-01    66
## # ... with 973 more rows
…
